{
  "em": 512,
  "icons": {
    "alpine": {
      "width": 489
    },
    "aosc": {
      "width": 497
    },
    "apple": {
      "width": 431
    },
    "archlinux": {
      "width": 512
    },
    "centos": {
      "width": 512
    },
    "coreos": {
      "width": 496
    },
    "debian": {
      "width": 409
    },
    "devuan": {
      "width": 488
    },
    "docker": {
      "width": 507
    },
    "elementary": {
      "width": 512
    },
    "fedora": {
      "width": 512
    },
    "fedora-inverse": {
      "width": 512
    },
    "freebsd": {
      "width": 452
    },
    "gentoo": {
      "width": 489
    },
    "linuxmint": {
      "width": 491
    },
    "linuxmint-inverse": {
      "width": 512
    },
    "mageia": {
      "width": 326
    },
    "mandriva": {
      "width": 512
    },
    "manjaro": {
      "width": 512
    },
    "nixos": {
      "width": 512
    },
    "opensuse": {
      "width": 512
    },
    "raspberry-pi": {
      "width": 398
    },
    "redhat": {
      "width": 512
    },
    "sabayon": {
      "width": 512
    },
    "slackware": {
      "width": 512
    },
    "slackware-inverse": {
      "width": 512
    },
    "tux": {
      "width": 438
    },
    "ubuntu": {
      "width": 455
    },
    "ubuntu-inverse": {
      "width": 512
    },
    "almalinux": {
      "width": 512
    },
    "archlabs": {
      "width": 512
    },
    "artix": {
      "width": 499
    },
    "budgie": {
      "width": 512
    },
    "deepin": {
      "width": 512
    },
    "endeavour": {
      "width": 509
    },
    "ferris": {
      "width": 512
    },
    "flathub": {
      "width": 512
    },
    "gnu-guix": {
      "width": 500
    },
    "illumos": {
      "width": 394
    },
    "kali-linux": {
      "width": 683
    },
    "openbsd": {
      "width": 512
    },
    "parrot": {
      "width": 353
    },
    "pop-os": {
      "width": 512
    },
    "rocky-linux": {
      "width": 512
    },
    "snappy": {
      "width": 500
    },
    "solus": {
      "width": 497
    },
    "void": {
      "width": 499
    },
    "zorin": {
      "width": 500
    }
  }
}